{"total_results": 398935, "total_pages": 19947, "page": 1, "results": [{"poster_path": "/fw02ONlDhrYjTSZV8XO6hhU3ds3.jpg", "title": "Bumblebee", "overview": "On the run in the year 1987, Bumblebee finds refuge in a junkyard in a small Californian beach town. Charlie, on the cusp of turning 18 and trying to find her place in the world, discovers Bumblebee, battle-scarred and broken.  When Charlie revives him, she quickly learns this is no ordinary yellow VW bug.", "release_date": "2018-12-15", "popularity": 413.64299999999997, "original_title": "Bumblebee", "backdrop_path": "/hMANgfPHR1tRObNp2oPiOi9mMlz.jpg", "vote_count": 886, "video": false, "adult": false, "vote_average": 6.5, "genre_ids": [28, 12, 878], "id": 424783, "original_language": "en"}, {"poster_path": "/lHu1wtNaczFPGFDTrjCSzeLPTKN.jpg", "title": "Bohemian Rhapsody", "overview": "Singer Freddie Mercury, guitarist Brian May, drummer Roger Taylor and bass guitarist John Deacon take the music world by storm when they form the rock 'n' roll band Queen in 1970. Hit songs become instant classics. When Mercury's increasingly wild lifestyle starts to spiral out of control, Queen soon faces its greatest challenge yet \u2013 finding a way to keep the band together amid the success and excess.", "release_date": "2018-10-24", "popularity": 263.255, "original_title": "Bohemian Rhapsody", "backdrop_path": "/pbXgLEYh8rlG2Km5IGZPnhcnuSz.jpg", "vote_count": 3807, "video": false, "adult": false, "vote_average": 8.1999999999999993, "genre_ids": [18, 10402], "id": 424694, "original_language": "en"}, {"poster_path": "/5Kg76ldv7VxeX9YlcQXiowHgdX6.jpg", "title": "Aquaman", "overview": "Arthur Curry learns that he is the heir to the underwater kingdom of Atlantis, and must step forward to lead his people and be a hero to the world.", "release_date": "2018-12-07", "popularity": 248.08199999999999, "original_title": "Aquaman", "backdrop_path": "/5A2bMlLfJrAfX9bqAibOL2gCruF.jpg", "vote_count": 2811, "video": false, "adult": false, "vote_average": 6.9000000000000004, "genre_ids": [28, 14, 878, 12], "id": 297802, "original_language": "en"}, {"poster_path": "/t0jwlwFUrtkPJoq5JH9YrRVROXZ.jpg", "title": "Fate/stay night: Heaven\u2019s Feel II. lost butterfly", "overview": "Theatrical-release adaptation of the visual novel \"Fate/stay night\", following the third and final route. (Part 2 of a trilogy.)", "release_date": "2019-01-12", "popularity": 206.65700000000001, "original_title": "\u5287\u5834\u7248\u300cFate/stay night [Heaven's Feel] \u2160\u2160. lost butterfly\u300d", "backdrop_path": "/3haESpzscyP1pLl2BxQ9j5KK9cM.jpg", "vote_count": 7, "video": false, "adult": false, "vote_average": 5.2000000000000002, "genre_ids": [16, 28, 14], "id": 390634, "original_language": "ja"}, {"poster_path": "/t0idiLMalKMj2pLsvqHrOM4LPdQ.jpg", "title": "The Mule", "overview": "A 90 year old horticulturalist and Korean War veteran is caught transporting $3 million worth of cocaine through Illinois for a Mexican drug cartel.", "release_date": "2018-12-14", "popularity": 206.50999999999999, "original_title": "The Mule", "backdrop_path": "/bkc4AY6FTa3yNqrshE9b1elDzPt.jpg", "vote_count": 185, "video": false, "adult": false, "vote_average": 6.0999999999999996, "genre_ids": [80, 18, 53], "id": 504172, "original_language": "en"}, {"poster_path": "/aG5GS0V15Zpk8zvsww02faNT0QI.jpg", "title": "Glass", "overview": "Following the conclusion of Split, Glass finds David Dunn pursuing Kevin Wendell Crumb\u2019s superhuman figure of The Beast in a series of escalating encounters, while the shadowy presence of Elijah Price emerges as an orchestrator who holds secrets critical to both men.", "release_date": "2019-01-16", "popularity": 161.12899999999999, "original_title": "Glass", "backdrop_path": "/ngBFDOsx13sFXiMweDoL54XYknR.jpg", "vote_count": 508, "video": false, "adult": false, "vote_average": 7, "genre_ids": [53, 27, 9648, 18], "id": 450465, "original_language": "en"}, {"poster_path": "/w4ibr8R702DCjwYniry1D1XwQXj.jpg", "title": "The Girl in the Spider's Web", "overview": "In Stockholm, Sweden, hacker Lisbeth Salander is hired by Frans Balder, a computer engineer, to retrieve a program that he believes it is too dangerous to exist.", "release_date": "2018-10-26", "popularity": 142.792, "original_title": "The Girl in the Spider's Web", "backdrop_path": "/r0ljJIPBGsGdpeDdlHpzCiNnxiB.jpg", "vote_count": 209, "video": false, "adult": false, "vote_average": 5.7999999999999998, "genre_ids": [18, 53, 9648, 80, 28], "id": 446807, "original_language": "en"}, {"poster_path": "/wrFpXMNBRj2PBiN4Z5kix51XaIZ.jpg", "title": "A Star Is Born", "overview": "Seasoned musician Jackson Maine discovers\u2014and falls in love with\u2014struggling artist Ally. She has just about given up on her dream to make it big as a singer\u2014until Jack coaxes her into the spotlight. But even as Ally's career takes off, the personal side of their relationship is breaking down, as Jack fights an ongoing battle with his own internal demons.", "release_date": "2018-10-03", "popularity": 133.285, "original_title": "A Star Is Born", "backdrop_path": "/wqtaHWOEZ3rXDJ8c6ZZShulbo18.jpg", "vote_count": 2783, "video": false, "adult": false, "vote_average": 7.5, "genre_ids": [18, 10402, 10749], "id": 332562, "original_language": "en"}, {"poster_path": "/a0j18XNVhP4RcW3wXwsqT0kVoQm.jpg", "title": "Hunter Killer", "overview": "An untested American submarine captain teams with U.S. Navy SEALs to rescue the Russian president, who has been kidnapped by a rogue general.", "release_date": "2018-10-19", "popularity": 129.898, "original_title": "Hunter Killer", "backdrop_path": "/hE6Jh9FJiBrakHcT3vmWxM0GVpv.jpg", "vote_count": 310, "video": false, "adult": false, "vote_average": 5.9000000000000004, "genre_ids": [28, 53], "id": 399402, "original_language": "en"}, {"poster_path": "/v3QyboWRoA4O9RbcsqH8tJMe8EB.jpg", "title": "Creed II", "overview": "Follows Adonis Creed's life inside and outside of the ring as he deals with new found fame, issues with his family, and his continuing quest to become a champion.", "release_date": "2018-11-21", "popularity": 129.09, "original_title": "Creed II", "backdrop_path": "/8yqLPNwNCtpOPc3XkOlkSMnghzw.jpg", "vote_count": 650, "video": false, "adult": false, "vote_average": 6.5, "genre_ids": [18, 28], "id": 480530, "original_language": "en"}, {"poster_path": "/f03YksE4NggUjG75toz4H1YAGRf.jpg", "title": "Dragon Ball Super: Broly", "overview": "Earth is peaceful following the Tournament of Power. Realizing that the universes still hold many more strong people yet to see, Goku spends all his days training to reach even greater heights. Then one day, Goku and Vegeta are faced by a Saiyan called 'Broly' who they've never seen before. The Saiyans were supposed to have been almost completely wiped out in the destruction of Planet Vegeta, so what's this one doing on Earth? This encounter between the three Saiyans who have followed completely different destinies turns into a stupendous battle, with even Frieza (back from Hell) getting caught up in the mix.", "release_date": "2018-12-14", "popularity": 128.494, "original_title": "\u30c9\u30e9\u30b4\u30f3\u30dc\u30fc\u30eb\u8d85\u30b9\u30fc\u30d1\u30fc \u30d6\u30ed\u30ea\u30fc", "backdrop_path": "/6OTRuxpwUUGbmCX3MKP25dOmo59.jpg", "vote_count": 208, "video": false, "adult": false, "vote_average": 7.4000000000000004, "genre_ids": [28, 16, 878], "id": 503314, "original_language": "ja"}, {"poster_path": "/uTVGku4LibMGyKgQvjBtv3OYfAX.jpg", "title": "Mary Poppins Returns", "overview": "In Depression-era London, a now-grown Jane and Michael Banks, along with Michael's three children, are visited by the enigmatic Mary Poppins following a personal loss. Through her unique magical skills, and with the aid of her friend Jack, she helps the family rediscover the joy and wonder missing in their lives.", "release_date": "2018-12-19", "popularity": 122.592, "original_title": "Mary Poppins Returns", "backdrop_path": "/cwiJQXezWz876K3jS57Sq56RYCZ.jpg", "vote_count": 674, "video": false, "adult": false, "vote_average": 6.7999999999999998, "genre_ids": [14, 10751, 35], "id": 400650, "original_language": "en"}, {"poster_path": "/5Ka49BWWyKMXr93YMbH5wLN7aAM.jpg", "title": "Once Upon a Deadpool", "overview": "A kidnapped Fred Savage is forced to endure Deadpool's PG-13 rendition of Deadpool 2 as a Princess Bride-esque story that's full of magic, wonder & zero F's.", "release_date": "2018-12-11", "popularity": 122.254, "original_title": "Once Upon a Deadpool", "backdrop_path": "/7RqpTZq0mPpTcEwZ6qqwRZAFoLe.jpg", "vote_count": 81, "video": false, "adult": false, "vote_average": 7.0999999999999996, "genre_ids": [35, 28], "id": 567604, "original_language": "en"}, {"poster_path": "/laMM4lpQSh5z6KIBPwWogkjzBVQ.jpg", "title": "Spider-Man: Into the Spider-Verse", "overview": "Miles Morales is juggling his life between being a high school student and being a spider-man. When Wilson \"Kingpin\" Fisk uses a super collider, others from across the Spider-Verse are transported to this dimension.", "release_date": "2018-12-07", "popularity": 121.196, "original_title": "Spider-Man: Into the Spider-Verse", "backdrop_path": "/7d6EY00g1c39SGZOoCJ5Py9nNth.jpg", "vote_count": 1260, "video": false, "adult": false, "vote_average": 8.5, "genre_ids": [28, 12, 16, 878, 35], "id": 324857, "original_language": "en"}, {"poster_path": "/maUMIZVGs8g1hYtq4dQ9Lg9FtVF.jpg", "title": "Second Act", "overview": "Maya, a 40-year-old woman struggling with frustrations from unfulfilled dreams. Until that is, she gets the chance to prove to Madison Avenue that street smarts are as valuable as book smarts, and that it is never too late for a second act.", "release_date": "2018-11-22", "popularity": 115.583, "original_title": "Second Act", "backdrop_path": "/gZ1n5lvEWLTQgmVbeKHyfIUrqgx.jpg", "vote_count": 49, "video": false, "adult": false, "vote_average": 6.4000000000000004, "genre_ids": [10749, 35], "id": 503616, "original_language": "en"}, {"poster_path": "/rGfGfgL2pEPCfhIvqHXieXFn7gp.jpg", "title": "Bird Box", "overview": "When a mysterious force decimates the world\u2019s population, only one thing is certain: if you see it, you take your life. Facing the unknown, Malorie finds love, hope and a new beginning only for it to unravel. Now she must flee with her two children down a treacherous river to the one place left that may offer sanctuary. But to survive, they'll have to undertake the perilous two-day journey blindfolded.", "release_date": "2018-12-13", "popularity": 115.464, "original_title": "Bird Box", "backdrop_path": "/A4xNxrRodvXzJWJs2GbBKo1IBk2.jpg", "vote_count": 3175, "video": false, "adult": false, "vote_average": 7.0999999999999996, "genre_ids": [53, 18, 878, 27], "id": 405774, "original_language": "en"}, {"poster_path": "/ij0xoc13hGhrYIlXGGuPXWTh3vi.jpg", "title": "How to Train Your Dragon: The Hidden World", "overview": "As Hiccup fulfills his dream of creating a peaceful dragon utopia, Toothless\u2019 discovery of an untamed, elusive mate draws the Night Fury away.  When danger mounts at home and Hiccup\u2019s reign as village chief is tested, both dragon and rider must make impossible decisions to save their kind.", "release_date": "2019-01-03", "popularity": 108.04900000000001, "original_title": "How to Train Your Dragon: The Hidden World", "backdrop_path": "/xt1eGafwaY42gBvYCUqXQrjUVjw.jpg", "vote_count": 66, "video": false, "adult": false, "vote_average": 8.6999999999999993, "genre_ids": [16, 10751, 12], "id": 166428, "original_language": "en"}, {"poster_path": "/2uNW4WbgBXL25BAbXGLnLqX71Sw.jpg", "title": "Venom", "overview": "Investigative journalist Eddie Brock attempts a comeback following a scandal, but accidentally becomes the host of Venom, a violent, super powerful alien symbiote. Soon, he must rely on his newfound powers to protect the world from a shadowy organization looking for a symbiote of their own.", "release_date": "2018-09-28", "popularity": 106.43000000000001, "original_title": "Venom", "backdrop_path": "/VuukZLgaCrho2Ar8Scl9HtV3yD.jpg", "vote_count": 4444, "video": false, "adult": false, "vote_average": 6.5999999999999996, "genre_ids": [878, 28], "id": 335983, "original_language": "en"}, {"poster_path": "/7WsyChQLEftFiDOVTGkv3hFpyyt.jpg", "title": "Avengers: Infinity War", "overview": "As the Avengers and their allies have continued to protect the world from threats too large for any one hero to handle, a new danger has emerged from the cosmic shadows: Thanos. A despot of intergalactic infamy, his goal is to collect all six Infinity Stones, artifacts of unimaginable power, and use them to inflict his twisted will on all of reality. Everything the Avengers have fought for has led up to this moment - the fate of Earth and existence itself has never been more uncertain.", "release_date": "2018-04-25", "popularity": 106.221, "original_title": "Avengers: Infinity War", "backdrop_path": "/bOGkgRGdhrBYJSLpXaxhXVstddV.jpg", "vote_count": 10931, "video": false, "adult": false, "vote_average": 8.3000000000000007, "genre_ids": [12, 28, 14], "id": 299536, "original_language": "en"}, {"poster_path": "/3TwxpPfMoeFLxzhgAWlptE6srsZ.jpg", "title": "The Nutcracker and the Four Realms", "overview": "A young girl is transported into a magical world of gingerbread soldiers and an army of mice.  In Disney\u2019s magical take on the classic The Nutcracker, Clara wants a one-of-a-kind key that will unlock a box holding a priceless gift. A golden thread presented at her godfather\u2019s holiday party leads her to the coveted key\u2014which promptly disappears into a strange and mysterious parallel world. There Clara encounters a soldier, a gang of mice and the regents of three magical Realms. But she must brave the ominous Fourth Realm, home to the tyrant Mother Ginger, to retrieve her key and return harmony to the unstable world.", "release_date": "2018-10-26", "popularity": 98.578000000000003, "original_title": "The Nutcracker and the Four Realms", "backdrop_path": "/l2ji4YiNSPBV69WjGBgU0gCvRqy.jpg", "vote_count": 466, "video": false, "adult": false, "vote_average": 6.0999999999999996, "genre_ids": [14, 12, 10751], "id": 426543, "original_language": "en"}]}