{"total_results": 10000, "total_pages": 500, "page": 1, "results": [{"poster_path": "/xBHvZcjRiWyobQ9kxBhO6B2dtRI.jpg", "title": "Ad Astra", "overview": "The near future, a time when both hope and hardships drive humanity to look to the stars and beyond. While a mysterious phenomenon menaces to destroy life on planet Earth, astronaut Roy McBride undertakes a mission across the immensity of space and its many perils to uncover the truth about a lost expedition that decades before boldly faced emptiness and silence in search of the unknown.", "release_date": "2019-09-17", "popularity": 443.65499999999997, "original_title": "Ad Astra", "backdrop_path": "/5BwqwxMEjeFtdknRV792Svo0K1v.jpg", "vote_count": 1306, "video": false, "adult": false, "vote_average": 6.0999999999999996, "genre_ids": [12, 18, 9648, 878, 53], "id": 419704, "original_language": "en"}, {"poster_path": "/l4iknLOenijaB85Zyb5SxH1gGz8.jpg", "title": "Jumanji: The Next Level", "overview": "In Jumanji: The Next Level, the gang is back but the game has changed. As they return to rescue one of their own, the players will have to brave parts unknown from arid deserts to snowy mountains, to escape the world's most dangerous game.", "release_date": "2019-12-04", "popularity": 386.20600000000002, "original_title": "Jumanji: The Next Level", "backdrop_path": "/zTxHf9iIOCqRbxvl8W5QYKrsMLq.jpg", "vote_count": 319, "video": false, "adult": false, "vote_average": 6.7999999999999998, "genre_ids": [28, 12, 35, 14], "id": 512200, "original_language": "en"}, {"poster_path": "/lnWkyG3LLgbbrIEeyl5mK5VRFe4.jpg", "title": "6 Underground", "overview": "After faking his death, a tech billionaire recruits a team of international operatives for a bold and bloody mission to take down a brutal dictator.", "release_date": "2019-12-13", "popularity": 296.99700000000001, "original_title": "6 Underground", "backdrop_path": "/eFw5YSorHidsajLTayo1noueIxI.jpg", "vote_count": 417, "video": false, "adult": false, "vote_average": 6.5, "genre_ids": [28, 53], "id": 509967, "original_language": "en"}, {"poster_path": "/pjeMs3yqRmFL3giJy4PMXWZTTPa.jpg", "title": "Frozen II", "overview": "Elsa, Anna, Kristoff and Olaf head far into the forest to learn the truth about an ancient mystery of their kingdom.", "release_date": "2019-11-20", "popularity": 201.07499999999999, "original_title": "Frozen II", "backdrop_path": "/xJWPZIYOEFIjZpBL7SVBGnzRYXp.jpg", "vote_count": 1057, "video": false, "adult": false, "vote_average": 7, "genre_ids": [12, 16, 10402, 10751], "id": 330457, "original_language": "en"}, {"poster_path": "/db32LaOibwEliAmSL2jjDF6oDdj.jpg", "title": "Star Wars: The Rise of Skywalker", "overview": "The next installment in the franchise and the conclusion of the \u201cStar Wars\u201c sequel trilogy as well as the \u201cSkywalker Saga.\u201d", "release_date": "2019-12-18", "popularity": 205.46799999999999, "original_title": "Star Wars: The Rise of Skywalker", "backdrop_path": "/jOzrELAzFxtMx2I4uDGHOotdfsS.jpg", "vote_count": 25, "video": false, "adult": false, "vote_average": 6.5999999999999996, "genre_ids": [28, 12, 878], "id": 181812, "original_language": "en"}, {"poster_path": "/8j58iEBw9pOXFD2L0nt0ZXeHviB.jpg", "title": "Once Upon a Time\u2026 in Hollywood", "overview": "Los Angeles, 1969. TV star Rick Dalton, a struggling actor specializing in westerns, and stuntman Cliff Booth, his best friend, try to survive in a constantly changing movie industry. Dalton is the neighbor of the young and promising actress and model Sharon Tate, who has just married the prestigious Polish director Roman Polanski\u2026", "release_date": "2019-07-25", "popularity": 130.976, "original_title": "Once Upon a Time\u2026 in Hollywood", "backdrop_path": "/yB2hTgz9CTVYjlMWPSl3LPx5nWj.jpg", "vote_count": 3263, "video": false, "adult": false, "vote_average": 7.5, "genre_ids": [35, 18, 53], "id": 466272, "original_language": "en"}, {"poster_path": "/udDclJoHjfjb8Ekgsd4FDteOkCU.jpg", "title": "Joker", "overview": "During the 1980s, a failed stand-up comedian is driven insane and turns to a life of crime and chaos in Gotham City while becoming an infamous psychopathic crime figure.", "release_date": "2019-10-02", "popularity": 193.78399999999999, "original_title": "Joker", "backdrop_path": "/n6bUvigpRFqSwmPp1m2YADdbRBc.jpg", "vote_count": 6512, "video": false, "adult": false, "vote_average": 8.4000000000000004, "genre_ids": [80, 18, 53], "id": 475557, "original_language": "en"}, {"poster_path": "/jpfkzbIXgKZqCZAkEkFH2VYF63s.jpg", "title": "Cars", "overview": "Lightning McQueen, a hotshot rookie race car driven to succeed, discovers that life is about the journey, not the finish line, when he finds himself unexpectedly detoured in the sleepy Route 66 town of Radiator Springs. On route across the country to the big Piston Cup Championship in California to compete against two seasoned pros, McQueen gets to know the town's offbeat characters.", "release_date": "2006-06-08", "popularity": 103.41800000000001, "original_title": "Cars", "backdrop_path": "/a1MlbLBk5Sy6YvMbSuKfwGlDVlb.jpg", "vote_count": 8440, "video": false, "adult": false, "vote_average": 6.7000000000000002, "genre_ids": [12, 16, 35, 10751], "id": 920, "original_language": "en"}, {"poster_path": "/pZekG6xabTmZxjmYw10wN84Hp8d.jpg", "title": "Marriage Story", "overview": "A stage director and an actress struggle through a grueling, coast-to-coast divorce that pushes them to their personal extremes.", "release_date": "2019-11-06", "popularity": 127.27800000000001, "original_title": "Marriage Story", "backdrop_path": "/4PCO7tewIGnE6ySjVf2DbJ3pjqq.jpg", "vote_count": 715, "video": false, "adult": false, "vote_average": 8.0999999999999996, "genre_ids": [18], "id": 492188, "original_language": "en"}, {"poster_path": "/vn94LlNrbUWIZZyAdmvUepFBeaY.jpg", "title": "Ip Man 4: The Finale", "overview": "Ip Man 4 is an upcoming Hong Kong biographical martial arts film directed by Wilson Yip and produced by Raymond Wong. It is the fourth in the Ip Man film series based on the life of the Wing Chun grandmaster of the same name and features Donnie Yen reprising the role. The film began production in April 2018 and ended in July the same year.", "release_date": "2019-12-20", "popularity": 137.51400000000001, "original_title": "\u8449\u554f4", "backdrop_path": "/ekP6EVxL81lZ4ivcqPsoZ72rY0h.jpg", "vote_count": 12, "video": false, "adult": false, "vote_average": 5.7999999999999998, "genre_ids": [28, 18, 36], "id": 449924, "original_language": "cn"}, {"poster_path": "/mbm8k3GFhXS0ROd9AD1gqYbIFbM.jpg", "title": "The Irishman", "overview": "Pennsylvania, 1956. Frank Sheeran, a war veteran of Irish origin who works as a truck driver, accidentally meets mobster Russell Bufalino. Once Frank becomes his trusted man, Bufalino sends him to Chicago with the task of helping Jimmy Hoffa, a powerful union leader related to organized crime, with whom Frank will maintain a close friendship for nearly twenty years.", "release_date": "2019-11-01", "popularity": 87.219999999999999, "original_title": "The Irishman", "backdrop_path": "/ww5aGS5H2tUtckxFFNOJE2790S7.jpg", "vote_count": 1424, "video": false, "adult": false, "vote_average": 7.9000000000000004, "genre_ids": [80, 18, 36], "id": 398978, "original_language": "en"}, {"poster_path": "/84Xz2Jh60tC3ICO1CY27wc0zwgC.jpg", "title": "Code 8", "overview": "In Lincoln City, some inhabitants have extraordinary abilities. Most live below the poverty line, under the close surveillance of a heavily militarized police force. Connor, a construction worker with powers, involves with a criminal gang to help his ailing mother. (Based on the short film \u201cCode 8,\u201d 2016.)", "release_date": "2019-12-06", "popularity": 112.245, "original_title": "Code 8", "backdrop_path": "/wlnDNMQlnwl5ETlVY6n9CEtR5s0.jpg", "vote_count": 46, "video": false, "adult": false, "vote_average": 7, "genre_ids": [28, 80, 18, 878, 53], "id": 461130, "original_language": "en"}, {"poster_path": "/zfE0R94v1E8cuKAerbskfD3VfUt.jpg", "title": "It Chapter Two", "overview": "27 years after overcoming the malevolent supernatural entity Pennywise, the former members of the Losers' Club, who have grown up and moved away from Derry, are brought back together by a devastating phone call.", "release_date": "2019-09-04", "popularity": 96.356999999999999, "original_title": "It Chapter Two", "backdrop_path": "/8moTOzunF7p40oR5XhlDvJckOSW.jpg", "vote_count": 2486, "video": false, "adult": false, "vote_average": 6.7999999999999998, "genre_ids": [18, 14, 27], "id": 474350, "original_language": "en"}, {"poster_path": "/kTQ3J8oTTKofAVLYnds2cHUz9KO.jpg", "title": "Rambo: Last Blood", "overview": "After fighting his demons for decades, John Rambo now lives in peace on his family ranch in Arizona, but his rest is interrupted when Gabriela, the granddaughter of his housekeeper Mar\u00eda, disappears after crossing the border into Mexico to meet her biological father. Rambo, who has become a true father figure for Gabriela over the years, undertakes a desperate and dangerous journey to find her.", "release_date": "2019-09-19", "popularity": 99.896000000000001, "original_title": "Rambo: Last Blood", "backdrop_path": "/spYx9XQFODuqEVoPpvaJI1ksAVt.jpg", "vote_count": 805, "video": false, "adult": false, "vote_average": 5.9000000000000004, "genre_ids": [28, 18, 53], "id": 522938, "original_language": "en"}, {"poster_path": "/3iYQTLGoy7QnjcUYRJy4YrAgGvp.jpg", "title": "Aladdin", "overview": "A kindhearted street urchin named Aladdin embarks on a magical adventure after finding a lamp that releases a wisecracking genie while a power-hungry Grand Vizier vies for the same lamp that has the power to make their deepest wishes come true.", "release_date": "2019-05-22", "popularity": 84.722999999999999, "original_title": "Aladdin", "backdrop_path": "/rVqY0Bo4Npf6EIONUROxjYAJfmD.jpg", "vote_count": 4346, "video": false, "adult": false, "vote_average": 7, "genre_ids": [12, 35, 14, 10749, 10751], "id": 420817, "original_language": "en"}, {"poster_path": "/jVr8vyatgZsPh2Po3W0IoLnMSJl.jpg", "title": "My Bakit List", "overview": "Dess embarks on a soul searching journey and accidentally bumps into her ex-boyfriend who left her without any explanation.", "release_date": "2019-12-11", "popularity": 169.70500000000001, "original_title": "My Bakit List", "backdrop_path": null, "vote_count": 0, "video": false, "adult": false, "vote_average": 0, "genre_ids": [10749], "id": 651693, "original_language": "tl"}, {"poster_path": "/pThyQovXQrw2m0s9x82twj48Jq4.jpg", "title": "Knives Out", "overview": "When renowned crime novelist Harlan Thrombey is found dead at his estate just after his 85th birthday, the inquisitive and debonair Detective Benoit Blanc is mysteriously enlisted to investigate. From Harlan's dysfunctional family to his devoted staff, Blanc sifts through a web of red herrings and self-serving lies to uncover the truth behind Harlan's untimely death.", "release_date": "2019-11-27", "popularity": 85.548000000000002, "original_title": "Knives Out", "backdrop_path": "/AbRYlvwAKHs0YuyNO6NX9ofq4l6.jpg", "vote_count": 690, "video": false, "adult": false, "vote_average": 7.9000000000000004, "genre_ids": [35, 9648, 53], "id": 546554, "original_language": "en"}, {"poster_path": "/4E2lyUGLEr3yH4q6kJxPkQUhX7n.jpg", "title": "One Piece: Stampede", "overview": "One Piece: Stampede is a stand-alone film that celebrates the anime's 20th Anniversary and takes place outside the canon of the \"One Piece\" TV series. Monkey D. Luffy and his Straw Hat pirate crew are invited to a massive Pirate Festival that brings many of the most iconic characters from throughout the franchise to participate in competition with the Straw Hats to find Roger's treasure. It also pits the Straw Hats against a new enemy named Bullet, a former member of Roger's crew.", "release_date": "2019-08-09", "popularity": 86.930000000000007, "original_title": "\u30ef\u30f3\u30d4\u30fc\u30b9\u30b9\u30bf\u30f3\u30d4\u30fc\u30c9", "backdrop_path": "/iGnCzXEx0cFlUbpyAMeHwHWhPhx.jpg", "vote_count": 102, "video": false, "adult": false, "vote_average": 7.4000000000000004, "genre_ids": [28, 12, 16], "id": 568012, "original_language": "ja"}, {"poster_path": "/eU0orGizEpOli4wtN8HtfOOJDlA.jpg", "title": "Gundala", "overview": "Sancaka has lived on the streets since his parents left him. Living a hard life, Sancaka survives by thinking about his own safety. When the condition of the city gets worse and injustice rages throughout the country, Sancaka must decide whether he continues to live to look after himself or rise to become their oppressed hero.", "release_date": "2019-08-29", "popularity": 108.443, "original_title": "Gundala", "backdrop_path": "/mlaX4c2M6usnhXHG5sYJcKVXflA.jpg", "vote_count": 20, "video": false, "adult": false, "vote_average": 6.5, "genre_ids": [28, 80, 18], "id": 516700, "original_language": "id"}, {"poster_path": "/uo7u2bRW6KPPe4ipTUqx5RZ9rwC.jpg", "title": "Jurassic Galaxy", "overview": "In the near future, a ship of space explorers crash land on an unknown planet. They're soon met with some of their worst fears as they discover the planet is inhabited by monstrous dinosaurs.", "release_date": "2018-08-20", "popularity": 91.600999999999999, "original_title": "Jurassic Galaxy", "backdrop_path": "/sXSp6NSu3fl52jrAc5l7bUPEBWy.jpg", "vote_count": 31, "video": false, "adult": false, "vote_average": 3.6000000000000001, "genre_ids": [28, 12, 878], "id": 540247, "original_language": "en"}]}