{"total_results": 10000, "total_pages": 500, "page": 1, "results": [{"poster_path": "/l4iknLOenijaB85Zyb5SxH1gGz8.jpg", "title": "Jumanji: The Next Level", "overview": "In Jumanji: The Next Level, the gang is back but the game has changed. As they return to rescue one of their own, the players will have to brave parts unknown from arid deserts to snowy mountains, to escape the world's most dangerous game.", "release_date": "2019-12-04", "popularity": 487.65499999999997, "original_title": "Jumanji: The Next Level", "backdrop_path": "/zTxHf9iIOCqRbxvl8W5QYKrsMLq.jpg", "vote_count": 215, "video": false, "adult": false, "vote_average": 6.7999999999999998, "genre_ids": [28, 12, 35, 14], "id": 512200, "original_language": "en"}, {"poster_path": "/pjeMs3yqRmFL3giJy4PMXWZTTPa.jpg", "title": "Frozen II", "overview": "Elsa, Anna, Kristoff and Olaf head far into the forest to learn the truth about an ancient mystery of their kingdom.", "release_date": "2019-11-20", "popularity": 253.351, "original_title": "Frozen II", "backdrop_path": "/xJWPZIYOEFIjZpBL7SVBGnzRYXp.jpg", "vote_count": 985, "video": false, "adult": false, "vote_average": 7, "genre_ids": [12, 16, 10402, 10751], "id": 330457, "original_language": "en"}, {"poster_path": "/xBHvZcjRiWyobQ9kxBhO6B2dtRI.jpg", "title": "Ad Astra", "overview": "The near future, a time when both hope and hardships drive humanity to look to the stars and beyond. While a mysterious phenomenon menaces to destroy life on planet Earth, astronaut Roy McBride undertakes a mission across the immensity of space and its many perils to uncover the truth about a lost expedition that decades before boldly faced emptiness and silence in search of the unknown.", "release_date": "2019-09-17", "popularity": 259.14299999999997, "original_title": "Ad Astra", "backdrop_path": "/5BwqwxMEjeFtdknRV792Svo0K1v.jpg", "vote_count": 1238, "video": false, "adult": false, "vote_average": 6.0999999999999996, "genre_ids": [12, 18, 9648, 878, 53], "id": 419704, "original_language": "en"}, {"poster_path": "/8j58iEBw9pOXFD2L0nt0ZXeHviB.jpg", "title": "Once Upon a Time\u2026 in Hollywood", "overview": "Los Angeles, 1969. TV star Rick Dalton, a struggling actor specialized in westerns, and stuntman Cliff Booth, his best friend, try to survive to a constantly changing movie industry. Dalton is neighbor of the young and promising actress and model Sharon Tate, who has just married the prestigious Polish director Roman Polanski\u2026", "release_date": "2019-07-25", "popularity": 177.99799999999999, "original_title": "Once Upon a Time\u2026 in Hollywood", "backdrop_path": "/aQLygZOIKai6aaiBAeeKpIWO5nc.jpg", "vote_count": 3202, "video": false, "adult": false, "vote_average": 7.5, "genre_ids": [35, 18, 53], "id": 466272, "original_language": "en"}, {"poster_path": "/udDclJoHjfjb8Ekgsd4FDteOkCU.jpg", "title": "Joker", "overview": "During the 1980s, a failed stand-up comedian is driven insane and turns to a life of crime and chaos in Gotham City while becoming an infamous psychopathic crime figure.", "release_date": "2019-10-02", "popularity": 159.54499999999999, "original_title": "Joker", "backdrop_path": "/n6bUvigpRFqSwmPp1m2YADdbRBc.jpg", "vote_count": 6418, "video": false, "adult": false, "vote_average": 8.4000000000000004, "genre_ids": [80, 18, 53], "id": 475557, "original_language": "en"}, {"poster_path": "/bm6zKJjKYKrIy3dcnOLk0kF85cl.jpg", "title": "Marriage Story", "overview": "A stage director and an actor struggle through a grueling, coast-to-coast divorce that pushes them to their personal extremes.", "release_date": "2019-11-06", "popularity": 151.21600000000001, "original_title": "Marriage Story", "backdrop_path": "/4PCO7tewIGnE6ySjVf2DbJ3pjqq.jpg", "vote_count": 580, "video": false, "adult": false, "vote_average": 8.1999999999999993, "genre_ids": [18, 10749], "id": 492188, "original_language": "en"}, {"poster_path": "/vn94LlNrbUWIZZyAdmvUepFBeaY.jpg", "title": "Ip Man 4: The Finale", "overview": "Ip Man 4 is an upcoming Hong Kong biographical martial arts film directed by Wilson Yip and produced by Raymond Wong. It is the fourth in the Ip Man film series based on the life of the Wing Chun grandmaster of the same name and features Donnie Yen reprising the role. The film began production in April 2018 and ended in July the same year.", "release_date": "2019-12-20", "popularity": 134.727, "original_title": "\u8449\u554f4", "backdrop_path": "/ekP6EVxL81lZ4ivcqPsoZ72rY0h.jpg", "vote_count": 0, "video": false, "adult": false, "vote_average": 0, "genre_ids": [28, 18, 36], "id": 449924, "original_language": "cn"}, {"poster_path": "/kTQ3J8oTTKofAVLYnds2cHUz9KO.jpg", "title": "Rambo: Last Blood", "overview": "After fighting his demons for decades, John Rambo now lives in peace on his family ranch in Arizona, but his rest is interrupted when Gabriela, the granddaughter of his housekeeper Mar\u00eda, disappears after crossing the border into Mexico to meet her biological father. Rambo, who has become a true father figure for Gabriela over the years, undertakes a desperate and dangerous journey to find her.", "release_date": "2019-09-19", "popularity": 132.876, "original_title": "Rambo: Last Blood", "backdrop_path": "/spYx9XQFODuqEVoPpvaJI1ksAVt.jpg", "vote_count": 779, "video": false, "adult": false, "vote_average": 5.9000000000000004, "genre_ids": [28, 18, 53], "id": 522938, "original_language": "en"}, {"poster_path": "/mbm8k3GFhXS0ROd9AD1gqYbIFbM.jpg", "title": "The Irishman", "overview": "Pennsylvania, 1956. Frank Sheeran, a war veteran of Irish origin who works as a truck driver, accidentally meets mobster Russell Bufalino. Once Frank becomes his trusted man, Bufalino sends him to Chicago with the task of helping Jimmy Hoffa, a powerful union leader related to organized crime, with whom Frank will maintain a close friendship for nearly twenty years.", "release_date": "2019-11-01", "popularity": 110.81399999999999, "original_title": "The Irishman", "backdrop_path": "/ww5aGS5H2tUtckxFFNOJE2790S7.jpg", "vote_count": 1331, "video": false, "adult": false, "vote_average": 8, "genre_ids": [80, 18, 36], "id": 398978, "original_language": "en"}, {"poster_path": "/pThyQovXQrw2m0s9x82twj48Jq4.jpg", "title": "Knives Out", "overview": "When renowned crime novelist Harlan Thrombey is found dead at his estate just after his 85th birthday, the inquisitive and debonair Detective Benoit Blanc is mysteriously enlisted to investigate. From Harlan's dysfunctional family to his devoted staff, Blanc sifts through a web of red herrings and self-serving lies to uncover the truth behind Harlan's untimely death.", "release_date": "2019-11-27", "popularity": 107.09699999999999, "original_title": "Knives Out", "backdrop_path": "/AbRYlvwAKHs0YuyNO6NX9ofq4l6.jpg", "vote_count": 589, "video": false, "adult": false, "vote_average": 7.7999999999999998, "genre_ids": [35, 9648, 53], "id": 546554, "original_language": "en"}, {"poster_path": "/zfE0R94v1E8cuKAerbskfD3VfUt.jpg", "title": "It Chapter Two", "overview": "27 years after overcoming the malevolent supernatural entity Pennywise, the former members of the Losers' Club, who have grown up and moved away from Derry, are brought back together by a devastating phone call.", "release_date": "2019-09-04", "popularity": 104.441, "original_title": "It Chapter Two", "backdrop_path": "/8moTOzunF7p40oR5XhlDvJckOSW.jpg", "vote_count": 2448, "video": false, "adult": false, "vote_average": 6.7999999999999998, "genre_ids": [18, 14, 27], "id": 474350, "original_language": "en"}, {"poster_path": "/7WsyChQLEftFiDOVTGkv3hFpyyt.jpg", "title": "Avengers: Infinity War", "overview": "As the Avengers and their allies have continued to protect the world from threats too large for any one hero to handle, a new danger has emerged from the cosmic shadows: Thanos. A despot of intergalactic infamy, his goal is to collect all six Infinity Stones, artifacts of unimaginable power, and use them to inflict his twisted will on all of reality. Everything the Avengers have fought for has led up to this moment - the fate of Earth and existence itself has never been more uncertain.", "release_date": "2018-04-25", "popularity": 79.932000000000002, "original_title": "Avengers: Infinity War", "backdrop_path": "/bOGkgRGdhrBYJSLpXaxhXVstddV.jpg", "vote_count": 16021, "video": false, "adult": false, "vote_average": 8.3000000000000007, "genre_ids": [28, 12, 878], "id": 299536, "original_language": "en"}, {"poster_path": "/jpfkzbIXgKZqCZAkEkFH2VYF63s.jpg", "title": "Cars", "overview": "Lightning McQueen, a hotshot rookie race car driven to succeed, discovers that life is about the journey, not the finish line, when he finds himself unexpectedly detoured in the sleepy Route 66 town of Radiator Springs. On route across the country to the big Piston Cup Championship in California to compete against two seasoned pros, McQueen gets to know the town's offbeat characters.", "release_date": "2006-06-08", "popularity": 130.47, "original_title": "Cars", "backdrop_path": "/a1MlbLBk5Sy6YvMbSuKfwGlDVlb.jpg", "vote_count": 8426, "video": false, "adult": false, "vote_average": 6.7000000000000002, "genre_ids": [12, 16, 35, 10751], "id": 920, "original_language": "en"}, {"poster_path": "/db32LaOibwEliAmSL2jjDF6oDdj.jpg", "title": "Star Wars: The Rise of Skywalker", "overview": "The next installment in the franchise and the conclusion of the \u201cStar Wars\u201c sequel trilogy as well as the \u201cSkywalker Saga.\u201d", "release_date": "2019-12-18", "popularity": 113.071, "original_title": "Star Wars: The Rise of Skywalker", "backdrop_path": "/jOzrELAzFxtMx2I4uDGHOotdfsS.jpg", "vote_count": 12, "video": false, "adult": false, "vote_average": 5.5, "genre_ids": [28, 12, 878], "id": 181812, "original_language": "en"}, {"poster_path": "/3iYQTLGoy7QnjcUYRJy4YrAgGvp.jpg", "title": "Aladdin", "overview": "A kindhearted street urchin named Aladdin embarks on a magical adventure after finding a lamp that releases a wisecracking genie while a power-hungry Grand Vizier vies for the same lamp that has the power to make their deepest wishes come true.", "release_date": "2019-05-22", "popularity": 87.787999999999997, "original_title": "Aladdin", "backdrop_path": "/rVqY0Bo4Npf6EIONUROxjYAJfmD.jpg", "vote_count": 4322, "video": false, "adult": false, "vote_average": 7, "genre_ids": [12, 35, 14, 10749, 10751], "id": 420817, "original_language": "en"}, {"poster_path": "/vqzNJRH4YyquRiWxCCOH0aXggHI.jpg", "title": "Terminator: Dark Fate", "overview": "Decades after Sarah Connor prevented Judgment Day, a lethal new Terminator is sent to eliminate the future leader of the resistance. In a fight to save mankind, battle-hardened Sarah Connor teams up with an unexpected ally and an enhanced super soldier to stop the deadliest Terminator yet.", "release_date": "2019-10-23", "popularity": 70.852000000000004, "original_title": "Terminator: Dark Fate", "backdrop_path": "/riTANvQ8GKmQbgtC1ps3OfkU43A.jpg", "vote_count": 811, "video": false, "adult": false, "vote_average": 6.2000000000000002, "genre_ids": [28, 878], "id": 290859, "original_language": "en"}, {"poster_path": "/uo7u2bRW6KPPe4ipTUqx5RZ9rwC.jpg", "title": "Jurassic Galaxy", "overview": "In the near future, a ship of space explorers crash land on an unknown planet. They're soon met with some of their worst fears as they discover the planet is inhabited by monstrous dinosaurs.", "release_date": "2018-08-20", "popularity": 96.727999999999994, "original_title": "Jurassic Galaxy", "backdrop_path": "/sXSp6NSu3fl52jrAc5l7bUPEBWy.jpg", "vote_count": 27, "video": false, "adult": false, "vote_average": 3.6000000000000001, "genre_ids": [28, 12, 878], "id": 540247, "original_language": "en"}, {"poster_path": "/lnWkyG3LLgbbrIEeyl5mK5VRFe4.jpg", "title": "6 Underground", "overview": "After faking his death, a tech billionaire recruits a team of international operatives for a bold and bloody mission to take down a brutal dictator.", "release_date": "2019-12-13", "popularity": 108.235, "original_title": "6 Underground", "backdrop_path": "/eFw5YSorHidsajLTayo1noueIxI.jpg", "vote_count": 174, "video": false, "adult": false, "vote_average": 7, "genre_ids": [28, 12, 53], "id": 509967, "original_language": "en"}, {"poster_path": "/20djTLqppfBx5WYA67Y300S6aPD.jpg", "title": "Abominable", "overview": "A group of misfits encounter a young Yeti named Everest, and they set off to reunite the magical creature with his family on the mountain of his namesake.", "release_date": "2019-09-19", "popularity": 78.510999999999996, "original_title": "Abominable", "backdrop_path": "/tLCDKsXo6D84IVFanoElosSEKdp.jpg", "vote_count": 281, "video": false, "adult": false, "vote_average": 6.7999999999999998, "genre_ids": [12, 16, 35, 10751], "id": 431580, "original_language": "en"}, {"poster_path": "/4E2lyUGLEr3yH4q6kJxPkQUhX7n.jpg", "title": "One Piece: Stampede", "overview": "One Piece: Stampede is a stand-alone film that celebrates the anime's 20th Anniversary and takes place outside the canon of the \"One Piece\" TV series. Monkey D. Luffy and his Straw Hat pirate crew are invited to a massive Pirate Festival that brings many of the most iconic characters from throughout the franchise to participate in competition with the Straw Hats to find Roger's treasure. It also pits the Straw Hats against a new enemy named Bullet, a former member of Roger's crew.", "release_date": "2019-08-09", "popularity": 86.168999999999997, "original_title": "\u30ef\u30f3\u30d4\u30fc\u30b9\u30b9\u30bf\u30f3\u30d4\u30fc\u30c9", "backdrop_path": "/iGnCzXEx0cFlUbpyAMeHwHWhPhx.jpg", "vote_count": 101, "video": false, "adult": false, "vote_average": 7.2999999999999998, "genre_ids": [28, 12, 16], "id": 568012, "original_language": "ja"}]}